C:\Users\efrai\Desktop\Proyecto\programacion-videojuego-efrain_vega\BonesLike\src\main\java\ucr\ac\cr\Vista\GUIEstadisticas.java
C:\Users\efrai\Desktop\Proyecto\programacion-videojuego-efrain_vega\BonesLike\src\main\java\ucr\ac\cr\Modelo\Proyectil_Slime.java
C:\Users\efrai\Desktop\Proyecto\programacion-videojuego-efrain_vega\BonesLike\src\main\java\ucr\ac\cr\Modelo\Proyectil_Vampiro.java
C:\Users\efrai\Desktop\Proyecto\programacion-videojuego-efrain_vega\BonesLike\src\main\java\ucr\ac\cr\Vista\PanelJuego.java
C:\Users\efrai\Desktop\Proyecto\programacion-videojuego-efrain_vega\BonesLike\src\main\java\ucr\ac\cr\Modelo\Proyectil_Personaje.java
C:\Users\efrai\Desktop\Proyecto\programacion-videojuego-efrain_vega\BonesLike\src\main\java\ucr\ac\cr\Modelo\Puntuacion.java
C:\Users\efrai\Desktop\Proyecto\programacion-videojuego-efrain_vega\BonesLike\src\main\java\ucr\ac\cr\Modelo\Enemigo_Bruja.java
C:\Users\efrai\Desktop\Proyecto\programacion-videojuego-efrain_vega\BonesLike\src\main\java\ucr\ac\cr\Modelo\AreaJuego.java
C:\Users\efrai\Desktop\Proyecto\programacion-videojuego-efrain_vega\BonesLike\src\main\java\ucr\ac\cr\Controlador\ControladorJuego.java
C:\Users\efrai\Desktop\Proyecto\programacion-videojuego-efrain_vega\BonesLike\src\main\java\ucr\ac\cr\Controlador\ControladorPuntuacion.java
C:\Users\efrai\Desktop\Proyecto\programacion-videojuego-efrain_vega\BonesLike\src\main\java\ucr\ac\cr\Vista\PanelPrincipal.java
C:\Users\efrai\Desktop\Proyecto\programacion-videojuego-efrain_vega\BonesLike\src\main\java\ucr\ac\cr\Modelo\Personaje.java
C:\Users\efrai\Desktop\Proyecto\programacion-videojuego-efrain_vega\BonesLike\src\main\java\ucr\ac\cr\Modelo\Enemigo_Vampiro.java
C:\Users\efrai\Desktop\Proyecto\programacion-videojuego-efrain_vega\BonesLike\src\main\java\ucr\ac\cr\Modelo\Sonido.java
C:\Users\efrai\Desktop\Proyecto\programacion-videojuego-efrain_vega\BonesLike\src\main\java\ucr\ac\cr\Modelo\RegistroPuntuacion.java
C:\Users\efrai\Desktop\Proyecto\programacion-videojuego-efrain_vega\BonesLike\src\main\java\ucr\ac\cr\Controlador\ControladorPrincipal.java
C:\Users\efrai\Desktop\Proyecto\programacion-videojuego-efrain_vega\BonesLike\src\main\java\ucr\ac\cr\Modelo\Proyectil_Bruja.java
C:\Users\efrai\Desktop\Proyecto\programacion-videojuego-efrain_vega\BonesLike\src\main\java\ucr\ac\cr\Vista\PanelInstrucciones.java
C:\Users\efrai\Desktop\Proyecto\programacion-videojuego-efrain_vega\BonesLike\src\main\java\ucr\ac\cr\Vista\GUIInstrucciones.java
C:\Users\efrai\Desktop\Proyecto\programacion-videojuego-efrain_vega\BonesLike\src\main\java\ucr\ac\cr\Vista\GUIPrincipal.java
C:\Users\efrai\Desktop\Proyecto\programacion-videojuego-efrain_vega\BonesLike\src\main\java\ucr\ac\cr\Vista\GUIGameOver.java
C:\Users\efrai\Desktop\Proyecto\programacion-videojuego-efrain_vega\BonesLike\src\main\java\ucr\ac\cr\Vista\GUIJuego.java
C:\Users\efrai\Desktop\Proyecto\programacion-videojuego-efrain_vega\BonesLike\src\main\java\ucr\ac\cr\Vista\PanelEstadisticas.java
C:\Users\efrai\Desktop\Proyecto\programacion-videojuego-efrain_vega\BonesLike\src\main\java\ucr\ac\cr\Modelo\Proyectil.java
C:\Users\efrai\Desktop\Proyecto\programacion-videojuego-efrain_vega\BonesLike\src\main\java\ucr\ac\cr\Modelo\Enemigo.java
C:\Users\efrai\Desktop\Proyecto\programacion-videojuego-efrain_vega\BonesLike\src\main\java\ucr\ac\cr\Vista\PanelGameOver.java
C:\Users\efrai\Desktop\Proyecto\programacion-videojuego-efrain_vega\BonesLike\src\main\java\ucr\ac\cr\Modelo\Enemigo_Slime.java
